INDEX VERSION 1.129+/home/k/khanm/cs383s2017/cs383s2017-ilikerustoo/In-Class Work/.metadata/.plugins/org.eclipse.jdt.core
2303517126.index
128082264.index
3850163322.index
2378519275.index
2174481639.index
718764315.index
2346627080.index
147556989.index
3774382786.index
